module deloitte/IaC/aws-cdk8s-go

go 1.19

require (
	github.com/aws/constructs-go/constructs/v10 v10.1.91
	github.com/aws/jsii-runtime-go v1.66.0
	github.com/cdk8s-team/cdk8s-core-go/cdk8s/v2 v2.4.16
)

require (
	github.com/Masterminds/semver/v3 v3.1.1 // indirect
	github.com/mattn/go-isatty v0.0.16 // indirect
	github.com/yuin/goldmark v1.4.13 // indirect
	golang.org/x/lint v0.0.0-20210508222113-6edffad5e616 // indirect
	golang.org/x/mod v0.6.0-dev.0.20220419223038-86c51ed26bb4 // indirect
	golang.org/x/net v0.0.0-20220722155237-a158d28d115b // indirect
	golang.org/x/sys v0.0.0-20220811171246-fbc7d0a398ab // indirect
	golang.org/x/tools v0.1.12 // indirect
)
