module eks-cdk-go

go 1.18

require (
	github.com/aws/aws-cdk-go/awscdk/v2 v2.39.0
	github.com/aws/constructs-go/constructs/v10 v10.1.85
	github.com/aws/jsii-runtime-go v1.65.0
)

require github.com/Masterminds/semver/v3 v3.1.1 // indirect
